{
    "version": "1.0.0",
    "serviceUrl": "http://localhost:4205",
    "auth" : {
        "clientId": "SpearOne.Examples.OAuth.Website.Local",
        "tokenStorageName": "SpearOne.Examples.OAuth.Website.authData"
      },
      "logging" : {
        "levelMin": "Trace",
        "levelMax": "Fatal"
      }
}
